…
``` r
library(tidytableone)

tidy_t1 <- create_tidytableone(
  data   = pbc_mayo,
  strata = "trt",
  vars   = c("age", "sex", "ascites", "hepato", "spiders", "edema",
             "bili", "albumin", "stage")
)

adorn_tidytableone(tidy_t1)
#> # A tibble: 41 × 7
#>    var        num_not_miss Overall `D-penicillamine` Placebo `(Missing)` p_value
#>    <chr>      <chr>        <chr>   <chr>             <chr>   <chr>       <chr>  
#>  1 "n"        ""           "418"   "158"             "154"   "106"       ""     
#>  2 ""         ""           ""      ""                ""      ""          ""     
#>  3 "age  "    "418"        ""      ""                ""      ""          "0.018"
#>  4 "  Mean (… ""           "50.7 … "51.4 (11.0)"     "48.6 … "52.9 (9.8… ""     
#>  5 "  Median… ""           "51.0 … "51.9 [26.3 – 78… "48.1 … "53.0 [33.… ""     
#>  6 "  "       ""           ""      ""                ""      ""          ""     
#>  7 "sex, n (… "418"        ""      ""                ""      ""          "0.421"
#>  8 "  Male"   ""           " 44 (… " 21 (13.3%)"     " 15 (… "  8 ( 7.5… ""     
#>  9 "  Female" ""           "374 (… "137 (86.7%)"     "139 (… " 98 (92.5… ""     
#> 10 "  "       ""           ""      ""                ""      ""          ""     
#> # ℹ 31 more rows
```
…
